Outsider Data Science - Gender Diversity in R and Python Package Contributors
…
Who are the most prolific R package contributors?

pkg_contributors %>% 
 filter(language=="r") %>% 
 group_by(contributor) %>% 
 summarise(packages=n()) %>% 
 arrange(desc(packages))

## # A tibble: 1,299 x 2
##    contributor            packages
##    <chr>                     <int>
##  1 Hadley Wickham               45
##  2 Jim Hester                   36
##  3 Kirill Müller                31
##  4 Mara Averick                 26
##  5 Jennifer (Jenny) Bryan       24
##  6 Gábor Csárdi                 19
##  7 Hiroaki Yutani               18
##  8 Lionel Henry                 16
##  9 Yihui Xie                    16
## 10 Christophe Dervieux          15
## # ... with 1,289 more rows

Who are the most prolific Python package contributors?

pkg_contributors %>% 
 filter(language=="python") %>% 
 group_by(contributor) %>% 
 summarise(packages=n()) %>% 
 arrange(desc(packages))

## # A tibble: 6,194 x 2
##    contributor     packages
##    <chr>              <int>
##  1 Jon Dufresne          30
##  2 Hugo                  27
##  3 Marc Abramowitz       24
##  4 Jason R. Coombs       18
##  5 Jakub Wilk            17
##  6 Alex Gaynor           16
##  7 Anthony Sottile       15
##  8 Felix Yan             15
##  9 Ville Skyttä          15
## 10 Donald Stufft         14
## # ... with 6,184 more rows
…
Who are the awesome humans who have contributed to both top R and Python packages? Grouping by login name ensures that we don’t get two different people with the same name but we drop it for display. There are 44 people who have contributed to some of both the top Python and R packages.

two_lang_contrib <- pkg_contributors %>% 
 group_by(login,contributor,language) %>%
 summarise(packages=n()) %>% 
 spread(language,packages) %>% 
 ungroup() %>% 
 select(-login)

two_lang_contrib <- two_lang_contrib[complete.cases(two_lang_contrib),] %>% 
 arrange(desc(r))

two_lang_contrib 

## # A tibble: 46 x 3
##    contributor              python     r
##    <chr>                     <int> <int>
##  1 Craig Citro                   3     7
##  2 Elliott Sales de Andrade      2     5
##  3 Philipp A.                    4     4
##  4 Aaron Schumacher              2     3
##  5 Ayappan                       1     2
##  6 Chapman Siu                   1     2
##  7 Ethan White                   1     2
##  8 Katrin Leinweber              2     2
##  9 Mark Sandan                   1     2
## 10 Tim D. Smith                  3     2
## # ... with 36 more rows
…
There it is. This was certainly a lot of work to get to a four cell crosstab but we have our answer. Women contribute to the top R packages at twice the rate of top Python packages. Can we speculate as to a reason? R is almost exclusively a data science language and most of the top packages reflect that. Python is more of a general purpose language that is also quite popular for data science, but as we look down the list of most popular Python packages we see more utility packages. Perhaps women are less represented in general computer science than they are in data science. With both languages, more than 90% of the contributors are men. Clearly, we have a way to go with gender diversity in both communities. Narrowing down the package list to focus on just data science packages is an avenue for further exploration.

As a bonus, what are the most “feminine” packages?

genders %>% group_by(language,package,gender) %>% 
  filter(gender != "Uncertain") %>% 
  count() %>% 
  spread(gender,n) %>% 
  mutate(frac_female = Female/(Female+Male)) %>% 
  arrange(desc(frac_female))

## # A tibble: 147 x 5
## # Groups:   language, package [147]
##    language package    Female  Male frac_female
##    <chr>    <chr>       <int> <int>       <dbl>
##  1 r        cellranger      1     1       0.5  
##  2 r        hms             1     2       0.333
##  3 r        rprojroot       1     2       0.333
##  4 r        tidyselect      3     6       0.333
##  5 r        forcats         7    18       0.28 
##  6 r        ellipsis        1     3       0.25 
##  7 python   decorator       2     7       0.222
##  8 r        scales          5    18       0.217
##  9 r        tidyr          11    41       0.212
## 10 r        pillar          1     4       0.2  
## # ... with 137 more rows
…
