Outsider Data Science - What Do The Ramones Want?
…
#quick sentiment analysis
positive <- get_sentiments("bing") %>%
  filter(sentiment == "positive")

negative <- get_sentiments("bing") %>%
  filter(sentiment == "negative")

lyric_words_cleaned %>%
  semi_join(positive,by="word") %>%
  group_by(song_name) %>% 
  count(word) %>% 
  group_by(song_name) %>% 
  tally(sort = TRUE,name="Happy Words")

## # A tibble: 162 x 2
##    song_name                   `Happy Words`
##    <chr>                               <int>
##  1 The Crusher                            10
##  2 It's Gonna Be Alright                   9
##  3 Palisades Park                          9
##  4 Too Tough to Die                        9
##  5 Censorshit                              8
##  6 I Don't Want to Grow Up                 8
##  7 In the Park                             8
##  8 My Back Pages                           8
##  9 Gimme Gimme Shock Treatment             7
## 10 Glad to See You Go                      7
## # ... with 152 more rows

lyric_words_cleaned %>%
  semi_join(negative,by="word") %>%
  group_by(song_name) %>% 
  count(word) %>% 
  group_by(song_name) %>% 
  tally(sort = TRUE,name="Sad Words")

## # A tibble: 156 x 2
##    song_name                       `Sad Words`
##    <chr>                                 <int>
##  1 I'm Not Afraid of Life                   21
##  2 Endless Vacation                         17
##  3 Don't Bust My Chops                      16
##  4 Love Kills                               15
##  5 Wart Hog                                 13
##  6 My Back Pages                            12
##  7 Cretin Family                            10
##  8 Something to Believe In                  10
##  9 Anxiety                                   9
## 10 Howling at the Moon (Sha-La-La)           9
## # ... with 146 more rows
…
}

want <- ramones_lyrics %>% get_ngrams(5,want_phrases)
want

## # A tibble: 43 x 4
## # Groups:   ngram [43]
##    rowid ngram                         n want             
##    <int> <chr>                     <int> <chr>            
##  1     1 i want i want i              14 i want i         
##  2     2 i want to be your            13 to be your       
##  3     3 i just want to walk           7 to walk          
##  4     4 i just want to have           6 to have          
##  5     5 i just want to be             4 to be            
##  6     6 i wanna be your boyfriend     4 be your boyfriend
##  7     7 i want to live my             4 to live my       
##  8     8 i want to run away            4 to run away      
##  9     9 i want to be a                3 to be a          
## 10    10 i want you by my              3 you by my        
## # ... with 33 more rows
…
