Outsider Data Science - Covid Cases vs. Deaths
…
  nest(data=c(date,cases_7day,led_deaths)) %>% 
  # Run a regression on lagged cases and date vs deaths
  mutate(model = map(data,
                     function(df) 
                       lm(led_deaths~cases_7day+poly(date,2),data = df)))

# Add regression coefficient
# get adjusted r squared
models <- models %>% 
  mutate(adj_r = map(model,function(x) glance(x) %>% 
                       pull(adj.r.squared))
         %>% unlist)
models

## # A tibble: 41 x 4
##     lead data               model  adj_r
##    <dbl> <list>             <list> <dbl>
##  1     0 <tibble [218 x 3]> <lm>   0.164
##  2     1 <tibble [218 x 3]> <lm>   0.187
##  3     2 <tibble [218 x 3]> <lm>   0.212
##  4     3 <tibble [218 x 3]> <lm>   0.241
##  5     4 <tibble [218 x 3]> <lm>   0.272
##  6     5 <tibble [218 x 3]> <lm>   0.307
##  7     6 <tibble [218 x 3]> <lm>   0.343
##  8     7 <tibble [218 x 3]> <lm>   0.383
##  9     8 <tibble [218 x 3]> <lm>   0.424
## 10     9 <tibble [218 x 3]> <lm>   0.467
## # ... with 31 more rows
…
